name,score,loss
timeval_baseline,0.04230053842388669,6.0513672828674325
timeval_baseline_ratingemb,0.043072279327786164,6.018055438995361
timeval_baseline_modifiedloss,0.03640234948605014,14.894038200378418
timeval_baseline_10seqlen,0.04242617066405639,6.1041221618652335
timeval_baseline_rateemb_genreemb_10seqlen,0.04264154021863297,6.01237678527832
timeval_baseline_rateemb_useremb_10seqlen,0.04063142437591799,6.109757900238037
timeval_2layerrnn_30seqlen_rateemb_genreemb,0.044261706640561525,5.974573612213135
timeval_2layerrnn_30seqlen_rateemb_genreembSWA,0.04440528634361258,5.974573612213135
timeval_2layerrnn_30seqlen_antonseq_rateemb_genreemb,0.040947952357644236,6.132595539093018
timeval_2layerrnn_rateemb_useremb_genremb_30seqlen,0.04063631913852202,6.0722084045410165
timeval_3stage,0.04480502528960704,5.934238433837893
timeval_3stage_biggerlstm,0.04634198074726735,5.891449451446532
timeval_2stage_2layerlstm,0.04045892536338416,6.063952445983888
timeval_2stage_2layerlstm_zhenafilter,0.040018370073480414,5.6916399002075195
